{
  "type": "service_account",
  "project_id": "visor-d4538",
  "private_key_id": "d0cc1166268fa25a14e16e4887e8dfae14370731",
  "private_key": "-----BEGIN PRIVATE KEY-----\nMIIEvgIBADANBgkqhkiG9w0BAQEFAASCBKgwggSkAgEAAoIBAQCrA+lYHzp0BuxG\nfZO5a7nthZg4OTZiSUbZoVb8fnCpetZAPihLzB9iTqC8Pn0KqcHwJTm1ImbYd2bx\naMyCfBWsfHzs7JGiMd/uXuglCVeeTJE3ZDDlZ7qYBinOM5KtVOvUypm7CveqAxTA\nVtmDuiplF/jGXd2mT5OVeaKifk4dBckXeLvQatcuKQ9guUa/pBVE0W5hv8hmS8Cf\nmVSNoQQWnrG4/JACFlM9+sSqy+lzw6fV0Rzx+/y+odIvCeJqSqgcW0yndiBZKpli\nXSLxC64LgcnMWZ4/RyBOq0nN51i8PEx2Nip89yiuNQ3hUfXqab8P7DbNsJ108VAI\nU4j23+w1AgMBAAECggEAHhC9Opic5G6eJeNob/IEOUGiKgpG6R8kVVkDy7an9GfL\n2HYFDBRaFSSpJgcfYRtIpQFKZLGkXpyZTMpFoBAUGGO3a8jIbrkxev0U94Ptsz8X\nTaNv5DjpCVaWDXIsMIxsPJgU0Fkkgu9xO8JZEctOLkE5Y5h3gghd9CqzALnPXlMP\nLEfW3U3/KB3jHZJSnchXdjyAEKLM5G2Sajx9W9QPxA1D41IWGa+C6xMMkOCUhx5u\naMvSTO83mkabrucw4NZo5FrkbHJ28rKo0oTo+u9jnHNGWrZOCdUPdCTlbhQLxi2n\nJN4YyQ8G1bJ8ZIYDsczIdxB3iXmKTYz6E3XND6gEoQKBgQDahiEeOQmpIHVdR1cw\nuDgduEQwf14FlbuiMdP534UBmdIQf7lzSP/Nz2K1jRObVg1lH0w4IPNRwDZWoyRm\nJ3D+l/CttVcoMAZIF0ekcUeG04rVtcdU3+1P2K/m7/NkO4K60yoEH3kG4Ifhw98H\nBAtfKT040dyTrCANxnShyAuo4QKBgQDIWAGY//vEtLV8FgeLrlYSCDvY730KIGbR\nSJ4Y0mqyF3VfRUtS5coxDdTljUQz4d3MZH48s/t5hKZ8VFXfiMiBDnBvn4qjgNfD\nFrV/ZCrymjagPAo8K+Jdb1YZOo/HddKV8Pxe/2ImV5qbQlFRGaZ2nLaFpdFBM6f0\n66L0xUyJ1QKBgQDUgWNrdKREaGA52cqcgklv/WWyk+nnHHlffX1anVdG+0Mg8FR0\nHCVHC8o+K3dJtCFKmWkRnFmCwp0VG4mmHezwaOmQw6yCVFGHgbwV2mNoZge5VBEI\nJMsuvtYwil/ytTyoWfmeEM0tNuRtVIFq3TAB1qTGwK70nIp/WuLJATT1gQKBgDlu\nWQ7mGuNZtkja+9DD6jKDH7zhcmPLxA2sln2hHCrvZJsp/xzFeL+1KlmftHR3BCEK\nkdGO+sDsENnFR1SsHmY4oGyvPIwAbFmlkePx8AnZwV0PuRNktSB5wSG8Uukn0nVf\nPslwxk8df9mQGkV4Z+rKo9wOG71oNHaWcgFe6cD9AoGBAIcOh5CLfn99ALr8rfB1\nex0ZomlqSMUPbXr7Q4M2GncWAxkRlccT8hhgjlgI341WvfoFjj9JwsOqpoAQZFu5\n5nEwSM56SS34df7QLnp8Cq9YS+g1Wiq2Pb5J2/nC4mlUoRrq0BD+jDDKDL5BudTy\nwHpu4swi/INeRutSOPFHt2v4\n-----END PRIVATE KEY-----\n",
  "client_email": "firebase-adminsdk-1uc9m@visor-d4538.iam.gserviceaccount.com",
  "client_id": "101326771008988576416",
  "auth_uri": "https://accounts.google.com/o/oauth2/auth",
  "token_uri": "https://accounts.google.com/o/oauth2/token",
  "auth_provider_x509_cert_url": "https://www.googleapis.com/oauth2/v1/certs",
  "client_x509_cert_url": "https://www.googleapis.com/robot/v1/metadata/x509/firebase-adminsdk-1uc9m%40visor-d4538.iam.gserviceaccount.com"
}
